<?xml version="1.0" encoding="UTF-8"?>
<CustomTab xmlns="http://soap.sforce.com/2006/04/metadata">
    <label>My Campaigns</label>
    <motif>Custom10: Moon</motif>
    <page>DIB_Campaign</page>
</CustomTab>
