<?xml version="1.0" encoding="UTF-8"?>
<CustomTab xmlns="http://soap.sforce.com/2006/04/metadata">
    <customObject>true</customObject>
    <description>The Equipment (IHS) tab holds the Equipments (similar to Assets) for IHS.</description>
    <motif>Custom19: Wrench</motif>
</CustomTab>
