<?xml version="1.0" encoding="UTF-8"?>
<CustomTab xmlns="http://soap.sforce.com/2006/04/metadata">
    <label>Welcome</label>
    <motif>Custom28: Cell phone</motif>
    <page>SwitchAutoLayoutPreference</page>
</CustomTab>
