<?xml version="1.0" encoding="UTF-8"?>
<CustomTab xmlns="http://soap.sforce.com/2006/04/metadata">
    <customObject>true</customObject>
    <description>The Work Order (IHS) tab holds the Work Orders records for IHS.</description>
    <motif>Custom45: Ticket</motif>
</CustomTab>
